Network exploration
…
PH-host network: nodes

# get node degree, but per part, since this is a bipartite net
edge_tab_weigth_occ %>% 
  select(edge, date, presence) %>% 
  separate(edge, into = c("A", "B"), sep = "-")

## # A tibble: 80,529 x 4
##    A          B                        date       presence
##    <chr>      <chr>                    <chr>         <dbl>
##  1 A01_O1.2.4 A01_C1.1.14_contig_12673 2011-03-21        0
##  2 A01_O1.2.4 A01_E1.2.10_contig_32472 2011-03-21        0
##  3 A01_O1.2.4 A01_E13_contig_43485     2011-03-21        0
##  4 A01_O1.2.4 A01_N_contig_18941       2011-03-21        0
##  5 A01_O1.2.4 A01_N_contig_30400       2011-03-21        0
##  6 A01_O1.2.4 A01_N_contig_39579       2011-03-21        0
##  7 A01_O1.2.4 A01_N_contig_70118       2011-03-21        0
##  8 A01_O1.2.4 A02_N_contig_82475       2011-03-21        0
##  9 A01_O1.2.4 D01_L1.42_contig_218719  2011-03-21        0
## 10 A01_O1.2.4 D01_N_contig_228630      2011-03-21        0
## # ... with 80,519 more rows
…
